<?xml version="1.0" encoding="iso-8859-1"?>
<!-- Generator: Adobe Illustrator 19.0.0, SVG Export Plug-In . SVG Version: 6.00 Build 0)  -->
<svg version="1.1" id="Capa_1" xmlns="http://www.w3.org/2000/svg" xmlns:xlink="http://www.w3.org/1999/xlink" x="0px" y="0px"
	 viewBox="0 0 511.178 511.178" style="enable-background:new 0 0 511.178 511.178;" xml:space="preserve">
<g>
	<polygon style="fill:#AAB2BD;" points="244.542,238.384 216.305,266.633 205.002,255.326 233.247,227.089 	"/>
	
		<rect x="313.286" y="145.678" transform="matrix(-0.7071 0.7071 -0.7071 -0.7071 670.7382 29.5003)" style="fill:#AAB2BD;" width="31.947" height="15.973"/>
</g>
<path style="fill:#965353;" d="M261.485,289.223l-5.702-5.702l-28.237,28.237l5.702,5.702l0.008-0.008
	c3.104-3.104,8.136-3.159,11.295,0l33.893,33.885l16.941-16.942l-33.884-33.885c-3.167-3.167-3.112-8.19,0-11.303L261.485,289.223z"
	/>
<g style="opacity:0.2;">
	<path style="fill:#FFFFFF;" d="M238.902,311.805l-0.008,0.008l-5.647,5.647l0.008-0.008c3.104-3.104,8.136-3.159,11.295,0
		l33.893,33.885l5.646-5.647l-33.892-33.885C247.038,308.646,242.007,308.7,238.902,311.805z"/>
</g>
<g style="opacity:0.2;">
	<path d="M255.829,294.878l0.016-0.016l5.647-5.647l-0.016,0.016c-3.104,3.104-3.159,8.128,0,11.295l33.893,33.885l-5.647,5.647
		l-33.893-33.885C252.67,303.014,252.724,297.983,255.829,294.878z"/>
</g>
<path style="fill:#965353;" d="M284.081,244.031l-0.062-0.055l-5.647,5.647l11.357,11.35l5.646-5.647
	c3.105-3.104,8.137-3.159,11.295,0l45.18,45.191l16.951-16.942l-45.188-45.191c-3.159-3.159-3.105-8.19,0-11.295l11.295-11.295
	c3.104-3.104,3.112-8.19,0-11.295l-5.648-5.647L284.081,244.031z"/>
<g style="opacity:0.2;">
	<path d="M317.966,244.031l45.188,45.191l5.648-5.647l-45.188-45.191c-3.159-3.159-3.105-8.19,0-11.295l-5.648,5.647
		C314.862,235.841,314.808,240.872,317.966,244.031z"/>
	<polygon points="284.081,244.031 284.02,243.977 278.372,249.624 278.427,249.679 	"/>
</g>
<g style="opacity:0.2;">
	<path style="fill:#FFFFFF;" d="M301.025,249.679l-5.648,5.647c3.105-3.104,8.137-3.159,11.295,0l45.18,45.191l5.656-5.647
		l-45.189-45.191C309.16,246.52,304.129,246.574,301.025,249.679z"/>
</g>
<path style="fill:#656D78;" d="M66.124,428.108l-50.835,39.533c-3.159,3.166-8.19,3.111-11.295,0l39.532,39.539
	c-3.159-3.158-3.159-8.135,0-11.295l39.54-50.834l5.647-5.648l-16.942-16.941L66.124,428.108z"/>
<g style="opacity:0.2;">
	<path style="fill:#FFFFFF;" d="M66.124,428.108l-50.835,39.533c-3.159,3.166-8.19,3.111-11.295,0l5.647,5.646
		c3.112,3.113,8.136,3.168,11.295,0l50.835-39.531L66.124,428.108z"/>
</g>
<g style="opacity:0.2;">
	<path d="M83.067,445.051l-39.54,50.834c-3.159,3.16-3.112,8.184,0,11.295l-5.647-5.646c-3.112-3.113-3.159-8.137,0-11.295
		l39.54-50.836L83.067,445.051z"/>
</g>
<g>
	<path style="fill:#3A3847;" d="M275.845,335.557c-2.208,0-4.033-1.786-4.033-3.994c0-2.207,1.748-3.993,3.947-3.993h0.086
		c2.199,0,3.994,1.786,3.994,3.993C279.839,333.771,278.044,335.557,275.845,335.557z"/>
	<path style="fill:#3A3847;" d="M258.902,318.607c-2.208,0-4.033-1.786-4.033-3.993c0-2.208,1.747-3.994,3.947-3.994h0.086
		c2.199,0,3.993,1.786,3.993,3.994C262.896,316.82,261.102,318.607,258.902,318.607z"/>
	<path style="fill:#3A3847;" d="M349.277,284.714c-2.208,0-4.033-1.786-4.033-3.993c0-2.208,1.747-3.994,3.947-3.994h0.086
		c2.199,0,3.993,1.786,3.993,3.994C353.271,282.928,351.477,284.714,349.277,284.714z"/>
	<path style="fill:#3A3847;" d="M332.319,267.772c-2.208,0-4.033-1.786-4.033-3.994c0-2.211,1.747-3.997,3.947-3.997h0.086
		c2.199,0,3.993,1.786,3.993,3.997C336.313,265.985,334.519,267.772,332.319,267.772z"/>
	<path style="fill:#3A3847;" d="M315.377,250.825c-2.208,0-4.033-1.786-4.033-3.994s1.747-3.994,3.947-3.994h0.086
		c2.199,0,3.993,1.786,3.993,3.994S317.576,250.825,315.377,250.825z"/>
</g>
<path style="fill:#FC6E51;" d="M374.448,119.772c0,0,28.238-50.827,45.18-67.77c16.951-16.95,87.552-48.011,87.552-48.011
	s-31.069,70.601-48.011,87.543c-16.943,16.942-67.777,45.188-67.777,45.188l-14.119,19.766l-2.824-2.824l-16.941-16.942
	l-2.832-2.824L374.448,119.772z"/>
<g style="opacity:0.3;">
	<path style="fill:#FFFFFF;" d="M425.277,57.65c12.933-12.933,57.027-34.048,77.23-43.339c2.887-6.279,4.673-10.319,4.673-10.319
		s-70.601,31.061-87.552,48.011c-16.941,16.942-45.18,67.77-45.18,67.77l-19.773,14.126l2.832,2.824l2.823,2.824l19.767-14.119
		C380.097,125.427,408.333,74.592,425.277,57.65z"/>
</g>
<g style="opacity:0.2;">
	<path d="M453.521,85.887c12.926-12.925,34.041-57.021,43.34-77.224c6.271-2.894,10.319-4.672,10.319-4.672
		s-31.069,70.601-48.011,87.543c-16.943,16.942-67.777,45.188-67.777,45.188l-14.119,19.766l-2.824-2.824l-2.823-2.824
		l14.118-19.766C385.743,131.074,436.579,102.829,453.521,85.887z"/>
</g>
<polygon style="fill:#656D78;" points="351.851,142.369 357.507,136.722 374.448,153.664 368.802,159.312 284.081,244.031 
	278.372,249.624 261.485,232.736 267.132,227.089 "/>
<path style="fill:#A0D468;" d="M261.485,232.736l16.888,16.888c3.167,3.167,3.104,8.19,0,11.295l0.055,0.055l-50.827,50.839
	l-5.647,5.647l-28.245-28.237l5.647-5.647l50.835-50.839C253.294,229.632,258.325,229.577,261.485,232.736z"/>
<g style="opacity:0.5;">
	<path style="fill:#FFFFFF;" d="M250.19,232.736l-50.835,50.839l5.647,5.647l50.835-50.839c3.104-3.104,8.136-3.159,11.295,0
		l-5.647-5.647C258.325,229.577,253.294,229.632,250.19,232.736z"/>
</g>
<g style="opacity:0.2;">
	<path d="M278.427,260.974L227.6,311.813l-5.647-5.647l50.827-50.839c3.112-3.104,3.167-8.136,0-11.295l5.647,5.647
		C281.593,252.838,281.539,257.869,278.427,260.974z"/>
</g>
<path style="fill:#A0D468;" d="M133.894,360.33c5.647-5.646,8.986-20.272,25.929-37.223l33.885-33.885l28.245,28.237l-33.893,33.893
	c-16.942,16.942-31.568,20.272-37.216,25.921l-16.95,16.941l-16.942-16.941L133.894,360.33z"/>
<g style="opacity:0.5;">
	<path style="fill:#FFFFFF;" d="M159.822,323.108c-16.942,16.95-20.281,31.576-25.929,37.223l-16.942,16.943l5.647,5.646
		l16.942-16.941c5.655-5.648,8.986-20.273,25.929-37.224l33.885-33.885l-5.647-5.647L159.822,323.108z"/>
</g>
<g style="opacity:0.2;">
	<path d="M187.982,351.267c-16.95,16.942-31.576,20.273-37.224,25.921l-16.942,16.95l-5.647-5.647l16.942-16.95
		c5.647-5.647,20.273-8.979,37.224-25.921l33.885-33.893l5.647,5.655L187.982,351.267z"/>
</g>
<rect x="90.865" y="376.403" transform="matrix(0.7071 0.7071 -0.7071 0.7071 318.8709 46.8812)" style="fill:#A0D468;" width="23.959" height="63.898"/>
<g style="opacity:0.2;">
	<rect x="73.416" y="421.798" transform="matrix(-0.7072 0.707 -0.707 -0.7072 438.8372 685.8216)" width="7.986" height="23.961"/>
</g>
<g style="opacity:0.2;">
	
		<rect x="206.624" y="280.564" transform="matrix(-0.7071 0.7071 -0.7071 -0.7071 572.0284 364.0471)" width="7.987" height="39.862"/>
</g>
<g style="opacity:0.2;">
	
		<rect x="268.755" y="226.419" transform="matrix(-0.7071 0.7071 -0.7071 -0.7071 634.1563 214.0451)" width="7.987" height="23.883"/>
</g>
<g style="opacity:0.2;">
	<polygon points="357.507,136.722 351.851,142.369 368.747,159.257 374.395,153.61 	"/>
</g>
<g style="opacity:0.2;">
	
		<rect x="224.546" y="296.458" transform="matrix(-0.7071 0.7071 -0.7071 -0.7071 629.8867 340.0678)" width="39.934" height="8.06"/>
</g>
<g style="opacity:0.2;">
	<polygon points="238.863,232.705 210.626,260.95 216.328,266.656 244.573,238.415 	"/>
</g>
<g style="opacity:0.2;">
	<polygon points="340.532,142.338 317.936,164.936 323.646,170.638 346.235,148.04 	"/>
</g>
<g style="opacity:0.2;">
	
		<rect x="270.662" y="223.004" transform="matrix(-0.7071 0.7071 -0.7071 -0.7071 683.9489 170.7677)" width="71.89" height="8.06"/>
</g>
<g style="opacity:0.5;">
	
		<rect x="65.247" y="398.678" transform="matrix(-0.707 0.7072 -0.7072 -0.707 450.6857 618.6238)" style="fill:#FFFFFF;" width="63.898" height="7.986"/>
</g>
<g style="opacity:0.2;">
	<rect x="76.534" y="409.965" transform="matrix(-0.707 0.7072 -0.7072 -0.707 477.935 629.9086)" width="63.898" height="7.986"/>
</g>
<g style="opacity:0.2;">
	<polygon style="fill:#FFFFFF;" points="357.507,148.017 272.779,232.736 267.132,227.089 351.851,142.369 	"/>
</g>
<g style="opacity:0.2;">
	
		<rect x="263.626" y="194.786" transform="matrix(-0.7071 0.7071 -0.7071 -0.7071 692.8679 110.5642)" width="119.819" height="7.987"/>
</g>
<g>
	<path style="fill:#3A3847;" d="M9.65,473.989L9.65,473.989c-3.198,0-6.217-1.256-8.479-3.525c-1.561-1.567-1.561-4.095,0-5.647
		c1.56-1.561,4.087-1.561,5.647,0c1.528,1.521,4.118,1.537,5.647,0c1.56-1.561,4.087-1.561,5.647,0c1.56,1.553,1.56,4.08,0,5.647
		C15.851,472.734,12.84,473.989,9.65,473.989z"/>
	<path style="fill:#3A3847;" d="M43.527,511.174c-1.021,0-2.043-0.39-2.823-1.17c-4.751-4.75-4.751-12.192,0-16.942
		c1.56-1.56,4.087-1.56,5.647,0s1.56,4.087,0,5.647c-1.607,1.607-1.607,4.041,0,5.647c1.56,1.56,1.56,4.087,0,5.647
		C45.57,510.784,44.548,511.174,43.527,511.174z"/>
	<path style="fill:#3A3847;" d="M43.527,511.174c-1.021,0-2.043-0.39-2.823-1.17l-39.532-39.54c-1.561-1.56-1.561-4.087,0-5.647
		c1.56-1.561,4.087-1.561,5.647,0l39.532,39.54c1.56,1.56,1.56,4.087,0,5.647C45.57,510.784,44.548,511.174,43.527,511.174z"/>
	<path style="fill:#3A3847;" d="M15.289,471.634c-1.186,0-2.363-0.53-3.151-1.544c-1.357-1.74-1.045-4.252,0.702-5.602
		l50.835-39.531c1.724-1.365,4.235-1.046,5.601,0.701c1.357,1.74,1.045,4.252-0.702,5.602l-50.835,39.531
		C17.013,471.361,16.148,471.634,15.289,471.634z"/>
	<path style="fill:#3A3847;" d="M43.527,499.879c-0.858,0-1.724-0.273-2.449-0.842c-1.747-1.35-2.06-3.861-0.702-5.602l39.54-50.834
		c1.357-1.748,3.861-2.067,5.601-0.703c1.748,1.35,2.06,3.861,0.702,5.602l-39.54,50.834
		C45.89,499.349,44.712,499.879,43.527,499.879z"/>
	<path style="fill:#3A3847;" d="M88.714,443.397c-1.021,0-2.044-0.39-2.824-1.17l-22.59-22.59c-1.56-1.561-1.56-4.088,0-5.647
		c1.56-1.559,4.087-1.56,5.647,0l22.59,22.59c1.56,1.56,1.56,4.087,0,5.647C90.758,443.007,89.736,443.397,88.714,443.397z"/>
	<path style="fill:#3A3847;" d="M133.894,398.209c-1.021,0-2.044-0.39-2.824-1.17l-22.59-22.59c-1.56-1.561-1.56-4.088,0-5.647
		s4.087-1.56,5.647,0l22.59,22.59c1.56,1.56,1.56,4.087,0,5.647C135.938,397.819,134.916,398.209,133.894,398.209z"/>
	<path style="fill:#3A3847;" d="M71.772,426.454c-1.021,0-2.043-0.39-2.824-1.17c-1.56-1.56-1.56-4.087,0-5.647l45.18-45.188
		c1.56-1.561,4.087-1.561,5.647,0s1.56,4.088,0,5.647l-45.18,45.188C73.816,426.065,72.794,426.454,71.772,426.454z"/>
	<path style="fill:#3A3847;" d="M88.714,443.397c-1.021,0-2.044-0.39-2.824-1.17c-1.56-1.561-1.56-4.088,0-5.647l45.18-45.188
		c1.56-1.56,4.087-1.56,5.647,0s1.56,4.087,0,5.647l-45.18,45.188C90.758,443.007,89.736,443.397,88.714,443.397z"/>
	<path style="fill:#3A3847;" d="M116.951,381.267c-1.021,0-2.044-0.39-2.824-1.17c-1.56-1.56-1.56-4.087,0-5.647l16.942-16.942
		c1.56-1.56,4.087-1.56,5.647,0s1.56,4.087,0,5.647l-16.942,16.942C118.995,380.877,117.973,381.267,116.951,381.267z"/>
	<path style="fill:#3A3847;" d="M159.822,327.102c-1.022,0-2.044-0.391-2.824-1.17c-1.56-1.561-1.56-4.088,0-5.648l33.885-33.885
		c1.561-1.56,4.088-1.56,5.647,0c1.561,1.561,1.561,4.088,0,5.648l-33.885,33.885C161.866,326.711,160.844,327.102,159.822,327.102z
		"/>
	<path style="fill:#3A3847;" d="M133.894,364.324c-1.021,0-2.044-0.39-2.824-1.17c-1.56-1.561-1.56-4.088,0-5.647
		c1.654-1.653,3.292-4.696,5.359-8.549c3.971-7.396,9.415-17.513,20.569-28.675c1.561-1.56,4.088-1.56,5.647,0
		c1.561,1.561,1.561,4.088,0,5.648c-10.327,10.327-15.444,19.852-19.181,26.802c-2.379,4.438-4.267,7.94-6.748,10.421
		C135.938,363.935,134.916,364.324,133.894,364.324z"/>
	<path style="fill:#3A3847;" d="M133.894,398.209c-1.021,0-2.044-0.39-2.824-1.17c-1.56-1.561-1.56-4.088,0-5.647l16.95-16.942
		c1.56-1.561,4.087-1.561,5.647,0s1.56,4.088,0,5.647l-16.95,16.942C135.938,397.819,134.916,398.209,133.894,398.209z"/>
	<path style="fill:#3A3847;" d="M188.06,355.346c-1.022,0-2.044-0.39-2.824-1.17c-1.56-1.56-1.56-4.087,0-5.646l33.893-33.893
		c1.561-1.561,4.088-1.561,5.647,0c1.561,1.56,1.561,4.087,0,5.646l-33.893,33.893C190.103,354.956,189.081,355.346,188.06,355.346z
		"/>
	<path style="fill:#3A3847;" d="M150.844,381.267c-1.021,0-2.044-0.39-2.824-1.17c-1.56-1.56-1.56-4.087,0-5.647
		c2.48-2.48,5.983-4.368,10.414-6.747c6.958-3.736,16.475-8.846,26.802-19.173c1.561-1.561,4.088-1.561,5.647,0
		c1.561,1.56,1.561,4.087,0,5.646c-11.154,11.154-21.279,16.592-28.666,20.562c-3.854,2.074-6.896,3.705-8.549,5.358
		C152.888,380.877,151.866,381.267,150.844,381.267z"/>
	<path style="fill:#3A3847;" d="M221.952,321.453c-1.022,0-2.044-0.39-2.824-1.17l-33.893-33.885c-1.56-1.56-1.56-4.087,0-5.646
		c1.561-1.561,4.088-1.561,5.647,0l33.893,33.885c1.561,1.56,1.561,4.087,0,5.646C223.996,321.064,222.974,321.453,221.952,321.453z
		"/>
	<path style="fill:#3A3847;" d="M199.355,287.568c-1.022,0-2.044-0.39-2.824-1.17c-1.56-1.56-1.56-4.087,0-5.646l50.835-50.839
		c1.561-1.56,4.088-1.56,5.647,0c1.561,1.56,1.561,4.087,0,5.647l-50.835,50.838C201.398,287.179,200.376,287.568,199.355,287.568z"
		/>
	<path style="fill:#3A3847;" d="M227.6,315.807c-1.022,0-2.044-0.391-2.824-1.17c-1.56-1.561-1.56-4.088,0-5.648l50.827-50.838
		c1.561-1.561,4.088-1.561,5.647,0c1.561,1.56,1.561,4.087,0,5.65l-50.827,50.836C229.643,315.416,228.621,315.807,227.6,315.807z"
		/>
	<path style="fill:#3A3847;" d="M244.542,321.453c-1.022,0-2.044-0.39-2.824-1.17c-1.591-1.575-4.056-1.575-5.647,0
		c-1.56,1.561-4.087,1.561-5.647,0c-1.56-1.56-1.56-4.087,0-5.646c4.665-4.665,12.278-4.665,16.942,0
		c1.561,1.56,1.561,4.087,0,5.646C246.586,321.064,245.564,321.453,244.542,321.453z"/>
	<path style="fill:#3A3847;" d="M261.485,304.512c-1.022,0-2.044-0.391-2.824-1.17c-4.672-4.673-4.672-12.271,0-16.943
		c1.561-1.56,4.088-1.56,5.647,0c1.561,1.561,1.561,4.088,0,5.648c-1.583,1.583-1.583,4.063,0,5.646
		c1.561,1.561,1.561,4.088,0,5.648C263.528,304.121,262.506,304.512,261.485,304.512z"/>
	<path style="fill:#3A3847;" d="M278.427,355.346c-1.022,0-2.044-0.39-2.824-1.17l-33.885-33.893c-1.56-1.56-1.56-4.087,0-5.646
		c1.561-1.561,4.088-1.561,5.647,0l33.885,33.893c1.561,1.56,1.561,4.087,0,5.646C280.47,354.956,279.448,355.346,278.427,355.346z"
		/>
	<path style="fill:#3A3847;" d="M278.427,355.346c-1.022,0-2.044-0.39-2.824-1.17c-1.56-1.56-1.56-4.087,0-5.646l16.95-16.951
		c1.561-1.56,4.087-1.56,5.647,0c1.561,1.561,1.561,4.088,0,5.648l-16.95,16.949C280.47,354.956,279.448,355.346,278.427,355.346z"
		/>
	<path style="fill:#3A3847;" d="M295.376,338.397c-1.021,0-2.043-0.391-2.823-1.17l-33.893-33.885c-1.56-1.561-1.56-4.088,0-5.648
		c1.561-1.56,4.088-1.56,5.647,0l33.893,33.885c1.561,1.561,1.561,4.088,0,5.648C297.42,338.006,296.399,338.397,295.376,338.397z"
		/>
	<path style="fill:#3A3847;" d="M306.671,259.32c-1.021,0-2.043-0.391-2.823-1.17c-1.591-1.576-4.056-1.576-5.647,0
		c-1.561,1.56-4.087,1.56-5.647,0c-1.56-1.561-1.56-4.088,0-5.648c4.665-4.665,12.278-4.665,16.942,0
		c1.561,1.56,1.561,4.087,0,5.648C308.715,258.93,307.693,259.32,306.671,259.32z"/>
	<path style="fill:#3A3847;" d="M323.614,242.378c-1.022,0-2.044-0.39-2.824-1.17c-4.672-4.672-4.672-12.27,0-16.942
		c1.561-1.56,4.088-1.56,5.647,0s1.56,4.087,0,5.647c-1.583,1.583-1.583,4.064,0,5.647c1.56,1.56,1.56,4.087,0,5.647
		C325.657,241.987,324.636,242.378,323.614,242.378z"/>
	<path style="fill:#3A3847;" d="M351.851,304.512c-1.021,0-2.043-0.391-2.823-1.17l-45.18-45.191c-1.56-1.561-1.56-4.088,0-5.648
		s4.087-1.56,5.647,0l45.18,45.191c1.561,1.561,1.561,4.088,0,5.648C353.895,304.121,352.873,304.512,351.851,304.512z"/>
	<path style="fill:#3A3847;" d="M351.851,304.512c-1.021,0-2.043-0.391-2.823-1.17c-1.56-1.561-1.56-4.088,0-5.648l16.95-16.941
		c1.561-1.561,4.088-1.561,5.647,0c1.56,1.56,1.56,4.087,0,5.646l-16.95,16.943C353.895,304.121,352.873,304.512,351.851,304.512z"
		/>
	<path style="fill:#3A3847;" d="M368.802,287.568c-1.022,0-2.044-0.39-2.824-1.17l-45.188-45.191c-1.561-1.56-1.561-4.087,0-5.647
		s4.088-1.56,5.647,0l45.188,45.192c1.56,1.56,1.56,4.087,0,5.646C370.845,287.179,369.823,287.568,368.802,287.568z"/>
	<path style="fill:#3A3847;" d="M205.002,259.32c-1.022,0-2.044-0.391-2.824-1.17c-1.56-1.561-1.56-4.088,0-5.648l28.245-28.237
		c1.561-1.56,4.088-1.56,5.647,0c1.561,1.56,1.561,4.087,0,5.647l-28.245,28.238C207.046,258.93,206.024,259.32,205.002,259.32z"/>
	<path style="fill:#3A3847;" d="M238.895,236.73c-1.022,0-2.044-0.39-2.824-1.17l-5.647-5.647c-1.56-1.56-1.56-4.087,0-5.647
		c1.561-1.56,4.088-1.56,5.647,0l5.647,5.647c1.561,1.56,1.561,4.087,0,5.647C240.938,236.34,239.916,236.73,238.895,236.73z"/>
	<path style="fill:#3A3847;" d="M210.65,264.971c-1.022,0-2.044-0.39-2.824-1.17l-5.647-5.65c-1.56-1.561-1.56-4.088,0-5.648
		c1.561-1.56,4.088-1.56,5.647,0l5.647,5.648c1.561,1.56,1.561,4.087,0,5.65C212.693,264.581,211.671,264.971,210.65,264.971z"/>
	<path style="fill:#3A3847;" d="M261.485,236.73c-1.022,0-2.044-0.39-2.824-1.17c-1.591-1.576-4.056-1.576-5.647,0
		c-1.56,1.56-4.087,1.56-5.647,0s-1.56-4.087,0-5.647c4.665-4.665,12.278-4.665,16.942,0c1.561,1.56,1.561,4.087,0,5.647
		C263.528,236.34,262.506,236.73,261.485,236.73z"/>
	<path style="fill:#3A3847;" d="M278.372,264.917c-1.022,0-2.044-0.391-2.824-1.171c-1.56-1.563-1.56-4.091,0-5.65
		c1.584-1.584,1.584-4.064,0-5.648c-1.56-1.56-1.56-4.087,0-5.647c1.561-1.56,4.088-1.56,5.647,0c4.673,4.672,4.673,12.27,0,16.946
		C280.415,264.527,279.394,264.917,278.372,264.917z"/>
	<path style="fill:#3A3847;" d="M278.372,253.618c-1.022,0-2.044-0.391-2.824-1.17L258.66,235.56c-1.56-1.56-1.56-4.087,0-5.647
		c1.561-1.56,4.088-1.56,5.647,0l16.888,16.888c1.561,1.56,1.561,4.087,0,5.647C280.415,253.228,279.394,253.618,278.372,253.618z"
		/>
	<path style="fill:#3A3847;" d="M267.132,231.083c-1.022,0-2.044-0.39-2.824-1.17c-1.56-1.56-1.56-4.087,0-5.647l84.72-84.72
		c1.56-1.56,4.087-1.56,5.647,0s1.561,4.087,0,5.647l-84.72,84.72C269.175,230.693,268.153,231.083,267.132,231.083z"/>
	<path style="fill:#3A3847;" d="M284.081,248.025c-1.021,0-2.043-0.39-2.823-1.17c-1.56-1.56-1.56-4.087,0-5.647l84.72-84.72
		c1.561-1.56,4.088-1.56,5.647,0s1.56,4.087,0,5.647l-84.72,84.72C286.125,247.635,285.104,248.025,284.081,248.025z"/>
	<path style="fill:#3A3847;" d="M323.614,231.083c-1.022,0-2.044-0.39-2.824-1.17c-1.561-1.56-1.561-4.087,0-5.647l11.295-11.295
		c1.561-1.56,4.088-1.56,5.647,0s1.56,4.087,0,5.647l-11.295,11.295C325.657,230.693,324.636,231.083,323.614,231.083z"/>
	<path style="fill:#3A3847;" d="M334.909,219.788c-1.022,0-2.044-0.391-2.824-1.17c-1.561-1.56-1.561-4.087,0-5.647
		c0.749-0.749,1.162-1.755,1.162-2.832c0-1.068-0.413-2.067-1.162-2.816c-1.561-1.552-1.561-4.08,0-5.647
		c1.561-1.56,4.088-1.56,5.647,0c2.255,2.247,3.503,5.257,3.503,8.463s-1.24,6.217-3.503,8.479
		C336.952,219.398,335.931,219.788,334.909,219.788z"/>
	<path style="fill:#3A3847;" d="M351.851,225.436c-1.021,0-2.043-0.391-2.823-1.17l-5.647-5.647c-1.561-1.56-1.561-4.087,0-5.647
		s4.088-1.56,5.647,0l5.647,5.647c1.561,1.56,1.561,4.087,0,5.647C353.895,225.045,352.873,225.436,351.851,225.436z"/>
	<path style="fill:#3A3847;" d="M351.851,236.73c-1.021,0-2.043-0.39-2.823-1.17c-1.56-1.568-1.56-4.095,0-5.647
		c0.749-0.749,1.162-1.748,1.162-2.816c0-1.076-0.413-2.083-1.162-2.832c-1.56-1.56-1.56-4.087,0-5.647s4.087-1.56,5.647,0
		c2.262,2.262,3.51,5.273,3.502,8.479c0,3.206-1.248,6.217-3.502,8.463C353.895,236.34,352.873,236.73,351.851,236.73z"/>
	<path style="fill:#3A3847;" d="M340.556,248.025c-1.021,0-2.043-0.39-2.823-1.17c-1.56-1.56-1.56-4.087,0-5.647l11.295-11.295
		c1.56-1.56,4.087-1.56,5.647,0s1.561,4.087,0,5.647l-11.295,11.295C342.6,247.635,341.578,248.025,340.556,248.025z"/>
	<path style="fill:#3A3847;" d="M334.909,239.063c-3.066,0-6.139-1.17-8.472-3.502c-1.56-1.56-1.56-4.087,0-5.647
		s4.087-1.56,5.647,0s4.088,1.56,5.647,0s4.087-1.56,5.647,0s1.561,4.087,0,5.647C341.048,237.893,337.975,239.063,334.909,239.063z
		"/>
	<path style="fill:#3A3847;" d="M340.556,146.363c-1.021,0-2.043-0.391-2.823-1.17l-11.295-11.295c-1.56-1.56-1.56-4.087,0-5.647
		c1.56-1.56,4.087-1.56,5.647,0l11.295,11.295c1.561,1.56,1.561,4.087,0,5.647C342.6,145.973,341.578,146.363,340.556,146.363z"/>
	<path style="fill:#3A3847;" d="M317.966,135.068c-1.021,0-2.043-0.391-2.823-1.17c-1.56-1.56-1.56-4.087,0-5.647
		c2.271-2.27,5.281-3.526,8.479-3.526c0.008,0,0.008,0,0.008,0c3.189,0.008,6.193,1.256,8.455,3.526
		c1.561,1.568,1.561,4.095,0,5.647c-1.561,1.56-4.088,1.56-5.647,0c-0.765-0.764-1.755-1.178-2.808-1.186c-0.008,0-0.008,0-0.008,0
		c-1.062,0-2.067,0.421-2.832,1.186C320.01,134.678,318.988,135.068,317.966,135.068z"/>
	<path style="fill:#3A3847;" d="M312.319,163.306c-1.022,0-2.044-0.391-2.824-1.17c-1.561-1.56-1.561-4.087,0-5.647l16.942-16.942
		c1.56-1.56,4.087-1.56,5.647,0s1.561,4.087,0,5.647l-16.942,16.942C314.362,162.915,313.341,163.306,312.319,163.306z"/>
	<path style="fill:#3A3847;" d="M317.966,168.953c-1.021,0-2.043-0.391-2.823-1.17l-5.647-5.647c-1.561-1.56-1.561-4.087,0-5.647
		s4.088-1.56,5.647,0l5.647,5.647c1.561,1.56,1.561,4.087,0,5.647C320.01,168.563,318.988,168.953,317.966,168.953z"/>
	<path style="fill:#3A3847;" d="M377.273,160.482c-1.021,0-2.044-0.39-2.824-1.17l-22.598-22.582c-1.56-1.56-1.56-4.087-0.008-5.655
		c1.561-1.56,4.096-1.552,5.656-0.008l22.598,22.598c1.56,1.56,1.56,4.087,0,5.647C379.317,160.092,378.294,160.482,377.273,160.482
		z"/>
	<path style="fill:#3A3847;" d="M354.675,137.892c-1.24,0-2.473-0.577-3.253-1.669c-1.279-1.794-0.865-4.29,0.929-5.577
		l19.773-14.127c1.81-1.271,4.291-0.873,5.577,0.929c1.279,1.794,0.866,4.29-0.928,5.577l-19.774,14.126
		C356.29,137.65,355.479,137.892,354.675,137.892z"/>
	<path style="fill:#3A3847;" d="M377.273,160.482c-0.804,0-1.615-0.242-2.324-0.741c-1.795-1.287-2.208-3.775-0.929-5.577
		l14.119-19.766c1.287-1.787,3.768-2.2,5.577-0.929c1.794,1.287,2.207,3.775,0.928,5.577l-14.118,19.767
		C379.745,159.897,378.513,160.482,377.273,160.482z"/>
	<path style="fill:#3A3847;" d="M374.448,123.766c-0.662,0-1.325-0.164-1.941-0.5c-1.927-1.077-2.621-3.502-1.553-5.437
		c1.17-2.09,28.713-51.514,45.851-68.65c1.56-1.561,4.087-1.561,5.647,0c1.561,1.56,1.561,4.087,0,5.647
		c-16.35,16.349-44.236,66.381-44.509,66.888C377.21,123.025,375.845,123.766,374.448,123.766z"/>
	<path style="fill:#3A3847;" d="M419.628,55.996c-1.021,0-2.043-0.39-2.823-1.17c-1.56-1.561-1.56-4.088,0-5.647
		c17.278-17.278,85.858-47.559,88.769-48.846c2.02-0.866,4.375,0.031,5.265,2.051c0.89,2.021-0.031,4.376-2.052,5.266
		c-0.693,0.304-70.102,30.952-86.334,47.177C421.672,55.606,420.651,55.996,419.628,55.996z"/>
	<path style="fill:#3A3847;" d="M391.392,140.716c-1.396,0-2.762-0.741-3.495-2.052c-1.068-1.927-0.374-4.36,1.553-5.437
		c0.507-0.273,50.546-28.167,66.896-44.517c1.561-1.56,4.088-1.56,5.647,0s1.56,4.087,0,5.647
		c-17.138,17.137-66.568,44.688-68.659,45.858C392.718,140.552,392.054,140.716,391.392,140.716z"/>
	<path style="fill:#3A3847;" d="M459.169,95.528c-1.022,0-2.044-0.391-2.824-1.17c-1.561-1.56-1.561-4.087,0-5.647
		c16.217-16.225,46.872-85.632,47.177-86.327c0.896-2.02,3.261-2.917,5.265-2.051c2.021,0.889,2.941,3.245,2.052,5.265
		c-1.287,2.91-31.575,71.49-48.846,88.76C461.212,95.138,460.191,95.528,459.169,95.528z"/>
	<path style="fill:#3A3847;" d="M453.521,89.881c-1.021,0-2.043-0.391-2.823-1.17l-28.245-28.237c-1.561-1.561-1.561-4.088,0-5.647
		c1.561-1.561,4.088-1.561,5.647,0l28.245,28.237c1.561,1.56,1.561,4.087,0,5.647C455.565,89.49,454.543,89.881,453.521,89.881z"/>
	<path style="fill:#3A3847;" d="M289.73,264.971c-1.022,0-2.044-0.39-2.824-1.17c-1.561-1.563-1.561-4.091,0-5.65l5.647-5.648
		c1.561-1.56,4.087-1.56,5.647,0s1.561,4.087,0,5.648l-5.647,5.65C291.773,264.581,290.751,264.971,289.73,264.971z"/>
	<path style="fill:#3A3847;" d="M289.73,264.971c-1.022,0-2.044-0.39-2.824-1.17l-11.357-11.353c-1.56-1.56-1.56-4.087,0-5.647
		c1.561-1.56,4.088-1.56,5.647,0l11.357,11.35c1.561,1.56,1.561,4.087,0,5.65C291.773,264.581,290.751,264.971,289.73,264.971z"/>
</g>
</svg>
